Building DAG of jobs...
Using shell: /bin/bash
Provided cores: 1
Rules claiming more threads will be scaled down.
Job counts:
	count	jobs
	1	bcftools_call
	3	bwa_map
	3	samtools_index
	3	samtools_sort
	10

[Fri Feb 15 09:48:50 2019]
Job 9: executing bwa mem on the following data/genome.fa data/samples/C.fastq to generate the following mapped_reads/C.bam

[Fri Feb 15 09:48:51 2019]
Finished job 9.
1 of 10 steps (10%) done

[Fri Feb 15 09:48:51 2019]
Job 8: executing bwa mem on the following data/genome.fa data/samples/B.fastq to generate the following mapped_reads/B.bam

[Fri Feb 15 09:48:53 2019]
Finished job 8.
2 of 10 steps (20%) done

[Fri Feb 15 09:48:53 2019]
Job 7: executing bwa mem on the following data/genome.fa data/samples/A.fastq to generate the following mapped_reads/A.bam

[Fri Feb 15 09:48:54 2019]
Finished job 7.
3 of 10 steps (30%) done

[Fri Feb 15 09:48:54 2019]
rule samtools_sort:
    input: mapped_reads/C.bam
    output: sorted_reads/C.bam
    jobid: 5
    wildcards: sample=C

[Fri Feb 15 09:48:54 2019]
Finished job 5.
4 of 10 steps (40%) done

[Fri Feb 15 09:48:54 2019]
rule samtools_sort:
    input: mapped_reads/B.bam
    output: sorted_reads/B.bam
    jobid: 4
    wildcards: sample=B

[Fri Feb 15 09:48:54 2019]
Finished job 4.
5 of 10 steps (50%) done

[Fri Feb 15 09:48:54 2019]
rule samtools_sort:
    input: mapped_reads/A.bam
    output: sorted_reads/A.bam
    jobid: 1
    wildcards: sample=A

[Fri Feb 15 09:48:55 2019]
Finished job 1.
6 of 10 steps (60%) done

[Fri Feb 15 09:48:55 2019]
rule samtools_index:
    input: sorted_reads/C.bam
    output: sorted_reads/C.bam.bai
    jobid: 6
    wildcards: sample=C

[Fri Feb 15 09:48:55 2019]
Finished job 6.
7 of 10 steps (70%) done

[Fri Feb 15 09:48:55 2019]
rule samtools_index:
    input: sorted_reads/B.bam
    output: sorted_reads/B.bam.bai
    jobid: 3
    wildcards: sample=B

[Fri Feb 15 09:48:55 2019]
Finished job 3.
8 of 10 steps (80%) done

[Fri Feb 15 09:48:55 2019]
rule samtools_index:
    input: sorted_reads/A.bam
    output: sorted_reads/A.bam.bai
    jobid: 2
    wildcards: sample=A

[Fri Feb 15 09:48:55 2019]
Finished job 2.
9 of 10 steps (90%) done

[Fri Feb 15 09:48:55 2019]
rule bcftools_call:
    input: sorted_reads/A.bam.bai, sorted_reads/B.bam.bai, sorted_reads/C.bam.bai, data/genome.fa, sorted_reads/A.bam, sorted_reads/B.bam, sorted_reads/C.bam
    output: calls/all.vcf
    jobid: 0

[Fri Feb 15 09:48:56 2019]
Finished job 0.
10 of 10 steps (100%) done
Complete log: /homes/odejong/Desktop/bioinf/Thema11/data-processing/opdr2/.snakemake/log/2019-02-15T094850.489072.snakemake.log
